[
    {
        "id": 1,
        "name": "gold framed aviator style sunglasses",
        "name_ar": "نظارة شمسية بإطار ذهبي",
        "description": "Lorem ipsum dolor sit amet consectetur adipisicing elit. Et, non repudiandae! Maiores neque iure a accusantium veritatis!",
        "description_ar": "هذا النص هو مثال لنص يمكن أن يستبدل في نفس المساحة، لقد تم توليد هذا النص من مولد النص العربى، حيث يمكنك أن تولد مثل هذا النص .",
        "price": 16,
        "discount": 3,
        "photo": "https://images.unsplash.com/photo-1511499767150-a48a237f0083?ixlib=rb-1.2.1&ixid=MnwxMjA3fDB8MHxzZWFyY2h8NHx8cHJvZHVjdHxlbnwwfDJ8MHx8&auto=format&fit=crop&w=500&q=60",
        "category": "accessories",
        "category_ar": "إكسسوارات"
    },
    {
        "id": 2,
        "name": "IPhone 11 Pro max",
        "name_ar": "آيفون 11 برو ماكس",
        "description": "Lorem ipsum dolor sit amet consectetur adipisicing elit. Et, non repudiandae! Maiores neque iure a accusantium veritatis!",
        "description_ar": "هذا النص هو مثال لنص يمكن أن يستبدل في نفس المساحة، لقد تم توليد هذا النص من مولد النص العربى، حيث يمكنك أن تولد مثل هذا النص .",
        "price": 18,
        "discount": 2,
        "photo": "https://images.unsplash.com/photo-1628489478708-ff0df5691e86?ixlib=rb-1.2.1&ixid=MnwxMjA3fDB8MHxzZWFyY2h8MjN8fHByb2R1Y3QlMjBlbGVjdHJvbmljfGVufDB8MnwwfHw%3D&auto=format&fit=crop&w=500&q=60",
        "category": "Electronics",
        "category_ar": "هواتف"
    },
     {
         "id": 3,
        "name": "Macbook Pro 2021",
        "name_ar": "ماك بوك برو 2021",
        "description": "Lorem ipsum dolor sit amet consectetur adipisicing elit. Et, non repudiandae! Maiores neque iure a accusantium veritatis!",
        "description_ar": "هذا النص هو مثال لنص يمكن أن يستبدل في نفس المساحة، لقد تم توليد هذا النص من مولد النص العربى، حيث يمكنك أن تولد مثل هذا النص .",
        "price": 24,
        "discount": 3,
        "photo": "https://images.unsplash.com/photo-1569770218135-bea267ed7e84?ixlib=rb-1.2.1&ixid=MnwxMjA3fDB8MHxzZWFyY2h8Mzd8fHByb2R1Y3QlMjBlbGVjdHJvbmljfGVufDB8MnwwfHw%3D&auto=format&fit=crop&w=500&q=60",
        "category": "Electronics",
        "category_ar": "إلكترونيات"
    },
    {
         "id": 4,
        "name": "Italy Leather Bag",
        "name_ar": "شنطة يد جلدية إيطالية",
        "description": "Lorem ipsum dolor sit amet consectetur adipisicing elit. Et, non repudiandae! Maiores neque iure a accusantium veritatis!",
        "description_ar": "هذا النص هو مثال لنص يمكن أن يستبدل في نفس المساحة، لقد تم توليد هذا النص من مولد النص العربى، حيث يمكنك أن تولد مثل هذا النص .",
        "price": 24,
        "discount": 3,
        "photo": "https://images.unsplash.com/photo-1606522754091-a3bbf9ad4cb3?ixlib=rb-1.2.1&ixid=MnwxMjA3fDB8MHxzZWFyY2h8OXx8cHJvZHVjdCUyMGJhZ3xlbnwwfDJ8MHx8&auto=format&fit=crop&w=500&q=60",
        "category": "accessories",
        "category_ar": "إكسسوارات"
    },
    {
         "id": 5,
        "name": "Turkish striped long sleeve shirt",
        "name_ar": "قميص تركي مخطط بأكمام طويلة",
        "description": "Lorem ipsum dolor sit amet consectetur adipisicing elit. Et, non repudiandae! Maiores neque iure a accusantium veritatis!",
        "description_ar": "هذا النص هو مثال لنص يمكن أن يستبدل في نفس المساحة، لقد تم توليد هذا النص من مولد النص العربى، حيث يمكنك أن تولد مثل هذا النص .",
        "price": 24,
        "discount": 3,
        "photo": "https://images.unsplash.com/photo-1589810635657-232948472d98?ixlib=rb-1.2.1&ixid=MnwxMjA3fDB8MHxzZWFyY2h8MjN8fGFjY2Vzc29yaWVzfGVufDB8MnwwfHw%3D&auto=format&fit=crop&w=500&q=60",
        "category": "Clothes",
        "category_ar": "ملابس"      
    },
    {
         "id": 6,
        "name": "Black Leather bifold wallet",
        "name_ar": "محفظة جلدية سوداء ثنائية الطي",
        "description": "Lorem ipsum dolor sit amet consectetur adipisicing elit. Et, non repudiandae! Maiores neque iure a accusantium veritatis!",
        "description_ar": "هذا النص هو مثال لنص يمكن أن يستبدل في نفس المساحة، لقد تم توليد هذا النص من مولد النص العربى، حيث يمكنك أن تولد مثل هذا النص .",
        "price": 24,
        "discount": 3,
        "photo": "https://images.unsplash.com/photo-1601592996763-f05c9c80a7f1?ixlib=rb-1.2.1&ixid=MnwxMjA3fDB8MHxzZWFyY2h8MzN8fGFjY2Vzc29yaWVzfGVufDB8MnwwfHw%3D&auto=format&fit=crop&w=500&q=60",
        "category": "accessories",
        "category_ar": "إكسسوارات"
    }
]